TidyTemplate
…
beyonce_lyrics %>%
  count(song_name, sort = TRUE)

## # A tibble: 391 x 2
##    song_name                                              n
##    <chr>                                              <int>
##  1 Lemonade Film (Script)                               336
##  2 Beyonc VMA's 2014                                   253
##  3 Get Me Bodied (Beyonc Experience Live)              245
##  4 Get Me Bodied (Extended Mix)                         195
##  5 Get Me Bodied (Live)                                 195
##  6 Destiny's Child Medley                               176
##  7 Get Me Bodied (Timbaland Remix) (Ft.JulioVoltio)   168
##  8 Run the World (Girls) (Dave Aud Club Remix)         131
##  9 That's How You Like It (Ft.JAY-Z)                   122
## 10 Me, Myself and I (Beyonc Experience Live)           118
## # ... with 381 more rows

taylor_swift_lyrics %>%
  count(Title, sort = TRUE)

## # A tibble: 132 x 2
##    Title                          n
##    <chr>                      <int>
##  1 22                             1
##  2 A Perfectly Good Heart         1
##  3 A Place in This World          1
##  4 Afterglow                      1
##  5 All Too Well                   1
##  6 All You Had to Do Was Stay     1
##  7 august                         1
##  8 Back to December               1
##  9 Bad Blood                      1
## 10 Begin Again                    1
## # ... with 122 more rows
…
beyonce_lyrics %>%
  count(artist_name, sort = TRUE)

## # A tibble: 1 x 2
##   artist_name     n
##   <chr>       <int>
## 1 Beyonc     22616

charts

## # A tibble: 140 x 8
##    artist  title  released  re_release  label  formats      chart chart_position
##    <chr>   <chr>  <chr>     <chr>       <chr>  <chr>        <chr> <chr>         
##  1 Taylor~ Taylo~ October ~ March 18, ~ Big M~ CD, CD+G (k~ US    5             
##  2 Taylor~ Taylo~ October ~ March 18, ~ Big M~ CD, CD+G (k~ AUS   33            
##  3 Taylor~ Taylo~ October ~ March 18, ~ Big M~ CD, CD+G (k~ CAN   14            
##  4 Taylor~ Taylo~ October ~ March 18, ~ Big M~ CD, CD+G (k~ FRA                
##  5 Taylor~ Taylo~ October ~ March 18, ~ Big M~ CD, CD+G (k~ GER                
##  6 Taylor~ Taylo~ October ~ March 18, ~ Big M~ CD, CD+G (k~ IRE   59            
##  7 Taylor~ Taylo~ October ~ March 18, ~ Big M~ CD, CD+G (k~ JPN   53            
##  8 Taylor~ Taylo~ October ~ March 18, ~ Big M~ CD, CD+G (k~ NZ    38            
##  9 Taylor~ Taylo~ October ~ March 18, ~ Big M~ CD, CD+G (k~ SWE                
## 10 Taylor~ Taylo~ October ~ March 18, ~ Big M~ CD, CD+G (k~ UK    81            
## # ... with 130 more rows
…
