Text Mining in R
…
---
background-image: url(img/oi-logo.png)
background-position: 0% 100%
background-size: 20%

# Griglia di Parametri regolare 

.center[
specifico una griglia di parametri da provare al modello, magari becco la combinazione di parametri giusta

]

```
## # A tibble: 36 x 2
##     penalty max_tokens
##       <dbl>      <int>
##  1 0.0001          500
##  2 0.000631        500
##  3 0.00398         500
##  4 0.0251          500
##  5 0.158           500
##  6 1               500
##  7 0.0001          800
##  8 0.000631        800
##  9 0.00398         800
## 10 0.0251          800
## # ... with 26 more rows
```
…
